"X25","X22","X38"
"4151001431031","9163020221040","3241000471001"
"4151001431032","9163020221041","3241000471002"
"4151001431033","9163020221042","3241000471003"
"4151001431034","9163020221043","3241000471004"
"4151001431035","9163020221044","3241000471005"
"4151001431036","9351000321017","3241000471006"
"4151001431037","9351000321018","3241000471007"
"4151001431038","9351000321019","3241000471008"
"4151001431039","9351000321020","3241000471009"
"4151001431040","9351000321021","3241000471010"
"4151001431041","9351000321022","3241000471011"
"4151001431042","9151000361018","3241000471012"
"4151001431043","9151000361019","3241000471013"
"4151001431044","9151000361020","3241000471014"
"4151001431045","9151000361021","3241000471015"
"4151001431046","9151000361022","3241000471016"
"4151001431047","9151000361023","3241000471017"
"4151001431048","9151000361024","3241000471018"
"4151001431049","9151000361025","3241000471019"
"4151001431050","9151000361026","3241000471020"
"4151001431051","9151000361027","3241000471021"
"4151001431052","9151000361028","3241000471022"
"4151001431053","9151000361029","3241000471023"
"4151001431054","9151000361030","3241000471024"
"4151001431055","9151000361031","3241000471025"
"4151001431056","9151000361032","3241000471026"
"4151001431057","9151000361033","3241000471027"
"4151001431058","9151000361034","3241000471028"
"4151001431059","9151000361035","3241000471029"
"4151001431060","9151000361036","3241000471030"
"4151001431061","9151000361037","3241000471031"
"4151001431062","9151000361038","3241000471032"
"4151001431063","9151000361039","3241000471033"
"4151001431064","9151000361040","3241000471034"
"4151001431065","9151000361041","3241000471035"
"4151001431066","9151000361042","3241000471036"
"4151001431067","9151000361043","3241000471037"
"4151001431068","9151000361044","3241000471038"
"4151001431069","9151000361045","3241000471039"
"4151001431070","9151000361046","3241000471040"
"4151001441031","9151000361047","3241000471041"
"4151001441032","9151000361048","3241000471042"
"4151001441033","9151000361049","3241000471043"
"4151001441034","9151000361050","3241000471044"
"4151001441035","9151000361051","3241000471045"
"4151001441036","9151000361052","3241000471046"
"4151001441037","9151000361053","3241000471047"
"4151001441038","9151000361054","3241000471048"
"4151001441039","9151000361055","3241000471049"
"4151001441040","9151000361056","3241000471050"
"4151001441041","9352070311076","3241000471051"
"4151001441042","9153071571041","3241000471052"
"4151001441043","9153071571042","3241000471053"
"4151001441044","9153071571043","3241000471054"
"4151001441045","9153071571044","3241000471055"
"4151001441046","9153071571045","3241000471056"
"4151001441047","9153071571046","3241000471057"
"4151001441048","9153071571047","3241000471058"
"4151001441049","9153071571048","3241000471059"
"4151001441050","9153071571049","3241000471060"
"4151001441051","9153071571050","3241000471061"
"4151001441052","9153071571051","3241000471062"
"4151001441053","9153071571052","3241000471063"
"4151001441054","9153071571053","3241000471064"
"4151001441055","9153071571054","3241000471065"
"4151001441056","9153071571055","3241000471066"
"4151001441057","9153071571056","3241000471067"
"4151001441058","9153071571057","3241000471068"
"4151001441059","9153071571058","3241000471069"
"4151001441060","9153071571059","3241000471070"
"4151001441061","9153071571060","3241000471071"
"4151001441062","9153071561041","3241000471072"
"4151001441063","9153071561042","3241000471073"
"4151001441064","9153071561043","3241000471074"
"4151001441065","9153071561044","3241000471075"
"4151001441066","9153071561045","3241000471076"
"4151001441067","9153071561046","3241000471077"
"4151001441068","9153071561047","3241000471078"
"4151001441069","9153071561048","3241000471079"
"4151001441070","9153071561049","3241000471080"
"4182000331081","9153071561050","3241000471081"
"4182000331082","9153071561051","3241000471082"
"4182000331083","9153071561052","3241000471083"
"4182000331084","9153071561053","3241000471084"
"4182000331085","9153071561054","3241000471085"
"4182000331086","9153071561055","3241000471086"
"4182000331087","9153071561056","3241000471087"
"4182000331088","9153071561057","3241000471088"
"4182000331089","9153071561058","3241000471089"
"4182000331090","9153071561059","3241000471090"
"4182000331091","9153071561060","3241000471091"
"4182000331092","9153071561061","3241000471092"
"4182000331093","9153071561062","3241000471093"
"4182000331094","9153071561063","3241000471094"
"4182000331095","9153071561064","3241000471095"
"4182000331096","9153071561065","3241000471096"
"4182000331097","9153071561066","3242001361001"
"4182000331098","9153071561067","3242001361002"
"4182000331099","9153071561068","3242001361003"
"4182000331100","9153071561069","3242001361004"
"4182000331101","9153071561070","3242001361005"
"4182000331102","9153071561071","3242001361006"
"4182000331103","9153071561072",""
"4182000331104","9153071561073",""
"4182000331105","9153071561074",""
"4182000331106","9153071561075",""
"4182000331107","9153071561076",""
"4182000331108","9153071561077",""
"4182000331109","9153071571061",""
"4182000331110","9153071571062",""
"4182000331111","9153071571063",""
"4182000331112","9153071571064",""
"4182000331113","9153071571065",""
"4182000331114","9153071571066",""
"4182000331115","9153071571067",""
"4182000331116","9153071571068",""
"4182000331117","9153071571069",""
"4182000331118","9153071571070",""
"4182000331119","9153071571071",""
"4182000331120","9153071571072",""
"4182000331121","9153071571073",""
"4182000331122","9153071571074",""
"4182000331123","9153071571075",""
"4182000331124","9153071571076",""
"4182000331125","9153071571077",""
"4182000331126","9153071571078",""
"4182000331127","9153071571079",""
"4182000331128","9153071571080",""
"4182000331129","9171000501035",""
"4182000331130","9171000501036",""
"4182000331131","9171000501037",""
"4182000331132","9171000501038",""
"4182000331133","9171000501039",""
"4182000331134","9171000501040",""
"4182000331135","9171000501041",""
"4182000331136","9171000501042",""
"4182000331137","9171000501043",""
"4182000331138","9171000501044",""
"4182000331139","9171000501045",""
"4182000331140","9171000501046",""
"4182000331141","9171000501047",""
"4182000331142","9171000501048",""
"4182000331143","9171000501049",""
"4182000331144","9171000501050",""
"4182000331145","9171000501051",""
"4182000331146","9171000501052",""
"4182000331147","9171000501053",""
"4182000331148","9163020221045",""
"4182000331149","9163020221046",""
"4182000331150","9163020221047",""
"4182000331151","9163020221048",""
"4182000331152","9163020221049",""
"4182000331153","9163020221050",""
"4182000331154","9163020221051",""
"4182000331155","9163020221052",""
"4182000331156","9163020221053",""
"4182000331157","9163020221054",""
"4182000331158","9163020221055",""
"4182000331159","9163020221056",""
"4182000331160","9163020221057",""
"4182000331161","9163020221058",""
"4182000331162","9163020221059",""
"4182000331163","9163020221060",""
"4182000331164","9202100291039",""
"4182000331165","9202100291040",""
"4182000331166","9202100291041",""
"4182000331167","9202100291042",""
"4182000331168","9202100291043",""
"4182000331169","9202100291044",""
"4182000331170","9202100291045",""
"4182000331171","9202100291046",""
"4182000391081","9202100291047",""
"4182000391082","9202100291048",""
"4182000391083","9202100291049",""
"4182000391084","9202100291050",""
"4182000391085","9202100291051",""
"4182000391086","9202100291052",""
"4182000391087","9224060601019",""
"4182000391088","9224060601020",""
"4182000391089","9224060601021",""
"4182000391090","9224060601022",""
"4182000391091","9224060601023",""
"4182000391092","9224060601024",""
"4182000391093","9224060601025",""
"4182000391094","9224060601026",""
"4182000391095","9224060601027",""
"4182000391096","9224060601028",""
"4182000391097","9224060601029",""
"4182000391098","9224060601030",""
"4182000391099","9224060601031",""
"4182000391100","9224060601032",""
"4182000391101","9211000291012",""
"4182000391102","9211000291013",""
"4182000391103","9163040121240",""
"4182000391104","9163040121241",""
"4182000391105","9163040121242",""
"4182000391106","9163040121243",""
"4182000391107","9163040121244",""
"4182000391108","9163040121245",""
"4182000391109","9163040121246",""
"4182000391110","9163040121247",""
"4182000391111","9163040121248",""
"4182000391112","9163040121249",""
"4182000391113","9163040121250",""
"4182000391114","9163040121251",""
"4182000391115","9163040121252",""
"4182000391116","9163040121253",""
"4182000391117","9163040121254",""
"4182000391118","9163040121255",""
"4182000391119","9163040121256",""
"4182000391120","9163040121257",""
"4182000391121","9163040121258",""
"4182000391122","9163040121259",""
"4182000391123","9163040121260",""
"4182000391124","9163040121261",""
"4182000391125","9163040121262",""
"4182000391126","9163040121263",""
"4182000391127","9163040121264",""
"4182000391128","9172110311015",""
"4182000391129","9172110311016",""
"4182000391130","9172110311017",""
"4182000391131","9172110311018",""
"4182000391132","9172110311019",""
"4182000391133","9172110311020",""
"4182000391134","9172110311021",""
"4182000391135","9172110311022",""
"4182000391136","9172110311023",""
"4182000391137","9172110311024",""
"4182000391138","9172110311025",""
"4182000391139","9172110311026",""
"4182000391140","9172110311027",""
"4182000391141","9172110311028",""
"4182000391142","9172110311029",""
"4182000391143","9172110311030",""
"4182000391144","9172110311031",""
"4182000391145","9172110311032",""
"4182000391146","9172110311033",""
"4182000391147","9172110311034",""
"4182000391148","9172110311035",""
"4182000391149","9172110321011",""
"4182000391150","9172110321012",""
"4182000391151","9172110321013",""
"4182000391152","9172110321014",""
"4182000391153","9273061611141",""
"4182000391154","9273061611142",""
"4182000391155","9153071561078",""
"4182000391156","9153071561079",""
"4182000391157","9153071561080",""
"4182000391158","9174021871012",""
"4182000391159","9174021871013",""
"4182000391160","9174021871014",""
"4182000391161","9174060291001",""
"4182000391162","9174060291002",""
"4182000391163","9174080301013",""
"4182000391164","9174080301014",""
"4182000391165","9174080301015",""
"4182000391166","9174080301016",""
"4182000391167","9174080301017",""
"4182000391168","9174080301018",""
"4182000391169","9174080301019",""
"4182000391170","9174080301020",""
"4182000391171","9174080301021",""
"4182000391172","9174080301022",""
"4182000391173","9174080301023",""
"4182000391174","9174080301024",""
"4182000391175","9163030281016",""
"4182000391176","9163030281017",""
"4182000391177","9163030281018",""
"4182000391178","9163030281019",""
"4182000391179","9163030281020",""
"4182000391180","9163030281021",""
"4182000391181","9351000321013",""
"4182000391182","9351000321014",""
"4182000391183","9351000321015",""
"4182000391184","9351000321016",""
"4182000391185","9213120301013",""
"4182000391186","9213120301014",""
"4182000391187","9154030831012",""
"4182000391188","9154030831013",""
"4182000391189","9154030831014",""
"4182000391190","9154030831015",""
"4182000391191","9154030831016",""
"4182000391192","9154030831017",""
"4182000391193","9154030831018",""
"4182000391194","9154030831019",""
"4182000391195","9154030831020",""
"4182000391196","9154030831021",""
"4182000391197","9154030861025",""
"4182000391198","9154030861026",""
"4182000391199","9154030861027",""
"4182000391200","9154030861028",""
"4182000391201","9154030861029",""
"4182000391202","9154030861030",""
"4182000391203","9154030861031",""
"4182000391204","9154030861032",""
"4182000391205","9154030861033",""
"4182000391206","9154030861034",""
"4182000391207","9154030861035",""
"4182000391208","9154030861036",""
"4182000391209","9154030861037",""
"4182000391210","9154030861038",""
"4182000391211","9154030861039",""
"4182000391212","9154030861040",""
"4182000391213","9154030861041",""
"4182000391214","9154030861042",""
"4182000391215","9154030871011",""
"4182000391216","9154030871012",""
"4182000391217","9154030871013",""
"4352060511009","9154030871014",""
"4352060511010","9154030871015",""
"4352060511011","9154030871016",""
"4352060511012","9174000341012",""
"4352060511013","9174000341013",""
"4352060511014","9174000341025",""
"4352060521029","9174000341026",""
"4352060521030","9174000341039",""
"4352060521031","9174000351013",""
"4352060521032","9174000351014",""
"4352060521033","9174000351015",""
"4352060521034","9174000351016",""
"4352060521035","9174000351017",""
"4352060521036","9174000351018",""
"4352060521037","9174000351019",""
"4352060521038","9174000351020",""
"4352060521039","9174000351021",""
"4352060521040","9174000351022",""
"4352060521041","9174000351023",""
"4352060521042","9174000351024",""
"4352060521043","9174000371019",""
"4352060521044","9174000371020",""
"4352060521045","9174000371021",""
"4352060521046","9174000371022",""
"4352060521047","9174021751010",""
"4352060521048","9174021751011",""
"4352060521049","9174021751012",""
"4352060521050","9174021751013",""
"4352060521051","9174021751014",""
"4352060521052","9174021751015",""
"4352060521053","9202100291060",""
"4352060521054","9202100291061",""
"4352060521055","9202100291062",""
"4352060521056","9202100291063",""
"","9202100291064",""
"","9202100291065",""
"","9202100291066",""
"","9202100291067",""
"","9202100301041",""
"","9202100301042",""
"","9202100301043",""
"","9202100301044",""
"","9202100301045",""
"","9202100301046",""
"","9202100301047",""
"","9202100301048",""
"","9202100301049",""
"","9202100301050",""
"","9202100301051",""
"","9202100301052",""
"","9202100301053",""
"","9202100301054",""
"","9202100301055",""
"","9202100301056",""
"","9202100301057",""
"","9202100301058",""
"","9202100301059",""
"","9202100301060",""
"","9202100301061",""
"","9202100301062",""
"","9202100301063",""
"","9202100301064",""
"","9202100301065",""
"","9202100301066",""
"","9202100301067",""
"","9202100301068",""
"","9202100301069",""
"","9202100301070",""
"","9202100301071",""
"","9202100301072",""
"","9202100301073",""
"","9202100301074",""
"","9202100301075",""
"","9202100301076",""
"","9202100301077",""
"","9202100301078",""
"","9202100301079",""
"","9202100301080",""
"","9202100291053",""
"","9202100291054",""
"","9202100291055",""
"","9202100291056",""
"","9202100291057",""
"","9202100291058",""
"","9202100291059",""
"","9352070311077",""
"","9352070311078",""
"","9352070311079",""
"","9352070311080",""
"","9352070311081",""
"","9352070311082",""
"","9352070311083",""
"","9352070311084",""
"","9352070311085",""
"","9352070311086",""
"","9352070311087",""
"","9352070311088",""
"","9352070311089",""
"","9352070311090",""
"","9352070311091",""
"","9352070311092",""
"","9352070311093",""
"","9352070311094",""
"","9352070311095",""
"","9352070311096",""
"","9352070311097",""
"","9352070311098",""
"","9352070311099",""
"","9352070311100",""
"","9352070311101",""
"","9352070311102",""
"","9352070311103",""
"","9352070311104",""
"","9352070311105",""
"","9352070311106",""
"","9352070311107",""
"","9352070311108",""
"","9352070311109",""
"","9352070311110",""
"","9352070311111",""
"","9352070311112",""
"","9352070311113",""
"","9352070311114",""
"","9352070311115",""
"","9352070311116",""
"","9352070311117",""
"","9352070311118",""
"","9352070311119",""
"","9352070311120",""
"","9352070311121",""
"","9352070311122",""
"","9352070311123",""
"","9352070311124",""
"","9352070311125",""
"","9352070311126",""
"","9352070311127",""
"","9352070311128",""
"","9352070311129",""
"","9352070311130",""
"","9352070311131",""
"","9352070311132",""
"","9352070311133",""
"","9352070311134",""
"","9352070311135",""
"","9352070311136",""
"","9352070311137",""
"","9352070311138",""
"","9352070311139",""
"","9352070311140",""
"","9352070311141",""
"","9352070311142",""
"","9352070311143",""
"","9352070311144",""
"","9352070311145",""
"","9352070311146",""
"","9153071761001",""
"","9153071761002",""
"","9153071761003",""
"","9153071761004",""
"","9153071761005",""
"","9153071761006",""
"","9153071761007",""
"","9153071761008",""
"","9153071761009",""
"","9153071761010",""
"","9153071761011",""
"","9153071761012",""
"","9153071761013",""
"","9153071761014",""
"","9153071761015",""
"","9153071761016",""
"","9153071761017",""
"","9153071761018",""
"","9153071761019",""
"","9153071761020",""
"","9153071761021",""
"","9153071761022",""
"","9153071761023",""
"","9153071761024",""
"","9153071761025",""
"","9153071761026",""
"","9153071761027",""
"","9153071761028",""
"","9153071761029",""
"","9153071761030",""
"","9153071761031",""
"","9153071761032",""
"","9153071761033",""
"","9153071761034",""
"","9153071761035",""
"","9153071761036",""
"","9153071761037",""
"","9153071761038",""
"","9153071761039",""
"","9153071761040",""
"","9153071791041",""
"","9153071791042",""
"","9153071791043",""
"","9153071791044",""
"","9153071791045",""
"","9153071791046",""
"","9153071791047",""
"","9153071791048",""
"","9153071791049",""
"","9153071791050",""
"","9153071791051",""
"","9153071791052",""
"","9153071791053",""
"","9153071791054",""
"","9153071791055",""
"","9153071791056",""
"","9153071791057",""
"","9153071791058",""
"","9153071791059",""
"","9153071791060",""
"","9153071791061",""
"","9153071791062",""
"","9153071791063",""
"","9153071791064",""
"","9153071791065",""
"","9153071791066",""
"","9153071791067",""
"","9153071791068",""
"","9153071791069",""
"","9153071791070",""
"","9153071791071",""
"","9153071791072",""
"","9153071791073",""
"","9153071791074",""
"","9153071791075",""
"","9153071791076",""
"","9153071791077",""
"","9153071791078",""
"","9153071791079",""
"","9153071791080",""
"","9341020451451",""
"","9341020451452",""
"","9341020451453",""
"","9341020451454",""
"","9341020451455",""
"","9341020451456",""
"","9341020451457",""
"","9341020451458",""
"","9341020451459",""
"","9341020451460",""
"","9341020451461",""
"","9341020451462",""
"","9341020451463",""
"","9341020451464",""
"","9341020451465",""
"","9341020451466",""
"","9341020451467",""
"","9341020451468",""
"","9341020451469",""
"","9341020451470",""
"","9341020451471",""
"","9341020451472",""
"","9341020451473",""
"","9341020451474",""
"","9341020451475",""
"","9341020451476",""
"","9341020451477",""
"","9341020451478",""
"","9341020451479",""
"","9341020451480",""
"","9341020451481",""
"","9341020451482",""
"","9341020451483",""
"","9341020451484",""
"","9341020451485",""
"","9341020451486",""
"","9341020451487",""
"","9341020451488",""
"","9341020451489",""
"","9341020451490",""
"","9341020451491",""
"","9341020451492",""
"","9341020451493",""
"","9341020451494",""
"","9341020451495",""
"","9341020451496",""
"","9341020451497",""
"","9341020451498",""
"","9341020451499",""
"","9341020451500",""
"","9341020451501",""
"","9341020451502",""
"","9341020451503",""
"","9341020451504",""
"","9341020451505",""
"","9341020451506",""
"","9341020451507",""
"","9341020451508",""
"","9341020451509",""
"","9341020451510",""
"","9341020451511",""
"","9341020451512",""
"","9341020451513",""
"","9341020451514",""
"","9341020451515",""
"","9341020451516",""
"","9341020451517",""
"","9341020451518",""
"","9341020451519",""
"","9341020451520",""
"","9341020451521",""
"","9341020451522",""
"","9341020451523",""
"","9341020451524",""
"","9341020451525",""
"","9341020451526",""
"","9341020451527",""
"","9341020451528",""
"","9341020451529",""
"","9341020451530",""
"","9341020451531",""
"","9341020451532",""
"","9341020451533",""
"","9341020451534",""
"","9341020451535",""
"","9341020451536",""
"","9341020451537",""
"","9341020451538",""
"","9341020451539",""
"","9341020451540",""
"","9174090241007",""
"","9174090241008",""
"","9174090241009",""
"","9174090241010",""
"","9202020361001",""
"","9202020361002",""
"","9202020361003",""
"","9202020361004",""
"","9202020361005",""
"","9202020361006",""
"","9202020361007",""
"","9202020361008",""
"","9202020361009",""
"","9163040121120",""
"","9163040121121",""
"","9163040121122",""
"","9163040121123",""
"","9163040121124",""
"","9163040121125",""
"","9163040121126",""
"","9163040121127",""
"","9163040121128",""
"","9163040121129",""
"","9163040121130",""
"","9163040121131",""
"","9163040121132",""
"","9163040121133",""
"","9163040121134",""
"","9163040121135",""
"","9163040121136",""
"","9163040121137",""
"","9163040121138",""
"","9163040121139",""
"","9163040121140",""
"","9163040121141",""
"","9163040121142",""
"","9163040121143",""
"","9163040121144",""
"","9163040121145",""
"","9163040121146",""
"","9163040121147",""
"","9163040121148",""
"","9163040121149",""
"","9163040121150",""
"","9163040121151",""
"","9163040121152",""
"","9163040121153",""
"","9163040121154",""
"","9163040121155",""
"","9163040121156",""
"","9163040121157",""
"","9163040121158",""
"","9163040121159",""
"","9163040121160",""
"","9163040121161",""
"","9163040121162",""
"","9163040121163",""
"","9163040121164",""
"","9163040121165",""
"","9163040121166",""
"","9163040121167",""
"","9163040121168",""
"","9163040121169",""
"","9163040121170",""
"","9163040121171",""
"","9163040121172",""
"","9163040121173",""
"","9163040121174",""
"","9163040121175",""
"","9163040121176",""
"","9163040121177",""
"","9163040121178",""
"","9163040121179",""
"","9163040121180",""
"","9163040121181",""
"","9163040121182",""
"","9163040121183",""
"","9163040121184",""
"","9163040121185",""
"","9163040121186",""
"","9163040121187",""
"","9163040121188",""
"","9163040121189",""
"","9163040121190",""
"","9163040121192",""
"","9163040121193",""
"","9163040121194",""
"","9163040121195",""
"","9163040121196",""
"","9163040121197",""
"","9163040121198",""
"","9163040121199",""
"","9163040121200",""
"","9163040121201",""
"","9163040121202",""
"","9163040121203",""
"","9163040121204",""
"","9163040121205",""
"","9163040121206",""
"","9163040121207",""
"","9163040121208",""
"","9163040121209",""
"","9163040121210",""
"","9163040121211",""
"","9163040121212",""
"","9163040121213",""
"","9163040121214",""
"","9163040121215",""
"","9163040121216",""
"","9163040121217",""
"","9163040121218",""
"","9163040121219",""
"","9163040121220",""
"","9163040121221",""
"","9163040121222",""
"","9163040121223",""
"","9163040121224",""
"","9163040121225",""
"","9163040121226",""
"","9163040121227",""
"","9163040121228",""
"","9163040121229",""
"","9163040121230",""
"","9163040121231",""
"","9163040121232",""
"","9163040121233",""
"","9163040121234",""
"","9163040121235",""
"","9163040121236",""
"","9163040121237",""
"","9163040121238",""
"","9163040121239",""
"","9163040121265",""
"","9163040121266",""
"","9163040121267",""
"","9163040121268",""
"","9163040121269",""
"","9163040121270",""
"","9163040121271",""
"","9163040121272",""
"","9163040121273",""
"","9163040121274",""
"","9163040121275",""
"","9163040121276",""
"","9163040121277",""
"","9163040121278",""
"","9163040121279",""
"","9163040121280",""
"","9163040121281",""
"","9163040121282",""
"","9163040121283",""
"","9163040121284",""
"","9163040121285",""
"","9163040121286",""
"","9163040121287",""
"","9163040121288",""
"","9163040121289",""
"","9163040121290",""
"","9163040121291",""
"","9163040121292",""
"","9163040121293",""
"","9163040121294",""
"","9163040121295",""
"","9163040121296",""
"","9163040121297",""
"","9163040121298",""
"","9171000501025",""
"","9171000501026",""
"","9171000501027",""
"","9171000501028",""
"","9171000501029",""
"","9171000501030",""
"","9171000501031",""
"","9171000501032",""
"","9171000501033",""
"","9171000501034",""
"","9351000301013",""
"","9351000301014",""
"","9351000301015",""
"","9351000301016",""
"","9351000301017",""
"","9272130671013",""
"","9272130671014",""
"","9272130671015",""
"","9272130671016",""
"","9272130671017",""
"","9272130671018",""
"","9272130671019",""
"","9272130671020",""
"","9272130671021",""
"","9272130671022",""
"","9272130671023",""
"","9272130671024",""
"","9341020451541",""
"","9341020451542",""
"","9341020451543",""
"","9341020451544",""
"","9341020451545",""
"","9341020451546",""
"","9341020451547",""
"","9341020451548",""
"","9341020451549",""
"","9341020451550",""
"","9341020451551",""
"","9341020451552",""
"","9341020451553",""
"","9341020451554",""
"","9341020451555",""
"","9341020451556",""
"","9341020451557",""
"","9341020451558",""
"","9341020451559",""
"","9341020451560",""
"","9341020451561",""
"","9341020451562",""
"","9341020451563",""
"","9341020451564",""
"","9341020451565",""
"","9341020451566",""
"","9341020451567",""
"","9341020451568",""
"","9341020451569",""
"","9341020451570",""
"","9341020451571",""
"","9341020451572",""
"","9341020451573",""
"","9341020451574",""
"","9341020451575",""
"","9341020451576",""
"","9341020451577",""
"","9341020451578",""
"","9341020451579",""
"","9341020451580",""
"","9341020451581",""
"","9341020451582",""
"","9341020451583",""
"","9341020451584",""
"","9341020451585",""
"","9341020451586",""
"","9341020451587",""
"","9341020451588",""
"","9341020451589",""
"","9341020451590",""
"","9341020451591",""
"","9341020451592",""
"","9341020451593",""
"","9341020451594",""
"","9341020451595",""
"","9341020451596",""
"","9341020451597",""
"","9341020451598",""
"","9341020451599",""
"","9341020451600",""
"","9341020451601",""
"","9341020451602",""
"","9341020451603",""
"","9341020451604",""
"","9341020451605",""
"","9341020451606",""
"","9341020451607",""
"","9341020451608",""
"","9341020451609",""
"","9341020451610",""
"","9341020451611",""
"","9341020451612",""
"","9341020451613",""
"","9341020451614",""
"","9341020451615",""
"","9341020451616",""
"","9341020451617",""
"","9341020451618",""
"","9341020451619",""
"","9341020451620",""
"","9341020451621",""
"","9341020451622",""
"","9341020451623",""
"","9341020451624",""
"","9341020451625",""
"","9341020451626",""
"","9341020451627",""
"","9341020451628",""
"","9341020451629",""
"","9341020451630",""
"","9341020451631",""
"","9341020451632",""
"","9341020451633",""
"","9341020451634",""
"","9341020451635",""
"","9341020451636",""
"","9341020451637",""
"","9341020451638",""
"","9341020451639",""
"","9341020451640",""
"","9341020451641",""
"","9341020451642",""
"","9341020451643",""
"","9341020451644",""
"","9341020451645",""
"","9341020451646",""
"","9341020451647",""
"","9341020451648",""
"","9341020451649",""
"","9341020451650",""
"","9341020451651",""
"","9341020451652",""
"","9341020451653",""
"","9341020451654",""
"","9341020451655",""
"","9341020451656",""
"","9341020451657",""
"","9341020451658",""
"","9341020451659",""
"","9341020451660",""
"","9341020451661",""
"","9341020451663",""
"","9341020451664",""
"","9341020451665",""
"","9341020451666",""
"","9341020451667",""
"","9341020451668",""
"","9341020451669",""
"","9341020451670",""
"","9341020451671",""
"","9341020451672",""
"","9341020451673",""
"","9341020451674",""
"","9341020451675",""
"","9341020451676",""
"","9341020451677",""
"","9341020451678",""
"","9341020451679",""
"","9341020451680",""
"","9341020451681",""
"","9341020451682",""
"","9341020451683",""
"","9341020451684",""
"","9341020451685",""
"","9341020451686",""
"","9341020451687",""
"","9341020451688",""
"","9341020451689",""
"","9341020451690",""
"","9341020451691",""
"","9341020451692",""
"","9341020451693",""
"","9341020451694",""
"","9341020451695",""
"","9341020451696",""
"","9341020451697",""
"","9341020451698",""
"","9341020451699",""
"","9341020451700",""
"","9341020451701",""
"","9341020451702",""
"","9341020451703",""
"","9341020451704",""
"","9341020451705",""
"","9341020451706",""
"","9341020451707",""
"","9341020451708",""
"","9341020451709",""
"","9341020451710",""
"","9341020451711",""
"","9341020451712",""
"","9341020451713",""
"","9341020451714",""
"","9341020451715",""
"","9341020451716",""
"","9341020451717",""
"","9341020451718",""
"","9341020451719",""
"","9341020451720",""
"","9341020451721",""
"","9341020451722",""
"","9341020451723",""
"","9341020451724",""
"","9341020451725",""
"","9341020451726",""
"","9341020451727",""
"","9341020451728",""
"","9341020451729",""
"","9341020451730",""
"","9341020451731",""
"","9341020451732",""
"","9341020451733",""
"","9341020451734",""
"","9341020451735",""
"","9341020451736",""
"","9341020451737",""
"","9341020451738",""
"","9341020451739",""
"","9341020451740",""
"","9341020451741",""
"","9341020451742",""
"","9341020451743",""
"","9341020451744",""
"","9341020451745",""
"","9341020451746",""
"","9341020451747",""
"","9341020451748",""
"","9341020451749",""
"","9341020451750",""
"","9341020451751",""
"","9341020451752",""
"","9341020451753",""
"","9341020451754",""
"","9341020451755",""
"","9341020451756",""
"","9341020451757",""
"","9341020451758",""
"","9341020451759",""
"","9341020451760",""
"","9341020451761",""
"","9341020451762",""
"","9341020451763",""
"","9341020451764",""
"","9341020451765",""
"","9341020451766",""
"","9341020451767",""
"","9341020451768",""
"","9341020451769",""
"","9341020451770",""
"","9341020451771",""
"","9341020451772",""
"","9341020451773",""
"","9341020451774",""
"","9341020451775",""
"","9341020451776",""
"","9341020451777",""
"","9341020451778",""
"","9341020451779",""
"","9341020451780",""
"","9341020451781",""
"","9341020451782",""
"","9341020451783",""
"","9341020451784",""
"","9341020451785",""
"","9341020451786",""
"","9341020451787",""
"","9341020451788",""
"","9341020451789",""
"","9341020451790",""
"","9341020451791",""
"","9341020451792",""
"","9341020451793",""
"","9341020451794",""
"","9341020451795",""
"","9341020451796",""
"","9341020451797",""
"","9341020451798",""
"","9341020451799",""
"","9341020451800",""
"","9341020451801",""
"","9341020451802",""
"","9341020451803",""
"","9341020451804",""
"","9341020451805",""
"","9341020451806",""
"","9341020451807",""
"","9341020451808",""
"","9341020451809",""
"","9341020451810",""
"","9341020451811",""
"","9341020451812",""
"","9341020451813",""
"","9341020451814",""
"","9341020451815",""
"","9341020451816",""
"","9341020451817",""
"","9341020451818",""
"","9341020451819",""
"","9341020451820",""
"","9341020451821",""
"","9341020451822",""
"","9341020451823",""
"","9341020451824",""
"","9341020451825",""
"","9341020451826",""
"","9341020451827",""
"","9341020451828",""
"","9341020451829",""
"","9341020451830",""
"","9341020451831",""
"","9341020451832",""
"","9341020451833",""
"","9341020451834",""
"","9341020451835",""
"","9341020451836",""
"","9341020451837",""
"","9341020451838",""
"","9341020451839",""
"","9341020451840",""
"","9341020451841",""
"","9341020451842",""
"","9341020451843",""
"","9341020451844",""
"","9341020451845",""
"","9341020451846",""
"","9341020451847",""
"","9341020451848",""
"","9341020451849",""
"","9341020451850",""
"","9341020451851",""
"","9341020451852",""
"","9341020451853",""
"","9341020451854",""
"","9341020451855",""
"","9341020451856",""
"","9341020451857",""
"","9341020451858",""
"","9341020451859",""
"","9341020451860",""
"","9341020451861",""
"","9341020451862",""
"","9341020451863",""
"","9341020451864",""
"","9341020451865",""
"","9341020451866",""
"","9341020451867",""
"","9341020451868",""
"","9341020451869",""
"","9341020451870",""
"","9341020451871",""
"","9341020451872",""
