date_run,township,sf_probit_model,mf_probit_model,nchars_probit_model
43531,23,price_tercile~1+BLDG_SF+FBATH+BEDS+EXT_WALL+TOWN_CODE+sale_quarter+sale_quarterofyear,price_tercile~1+BLDG_SF+FBATH+BEDS+EXT_WALL+TOWN_CODE+sale_quarter+sale_quarterofyear,not used
43549,16,price_tercile~1+BLDG_SF+HD_SF+FBATH+BEDS+ROOMS+EXT_WALL+LOCF1+PORCH+GARAGE_IND+AIR+HEAT,price_tercile~1+BLDG_SF+LOCF1+FBATH+BEDS+EXT_WALL,not used
43551,22,price_tercile~1+BLDG_SF+HD_SF+FBATH+BEDS+ROOMS+EXT_WALL+LOCF1+PORCH+GARAGE_IND+AIR+HEAT,price_tercile~1+BLDG_SF+LOCF1+FBATH+BEDS+EXT_WALL,not used
43556,25,price_tercile~1+BLDG_SF+HD_SF+FBATH+HBATH+BEDS+EXT_WALL+GAR1_SIZE+TOWN_CODE,price_tercile~1+BLDG_SF+FBATH+BEDS+EXT_WALL+TOWN_CODE,not used
43591,10,price_tercile~1+BLDG_SF+HD_SF+FBATH+BEDS+EXT_WALL+GAR1_SIZE+TOWN_CODE,price_tercile~1+BLDG_SF+FBATH+BEDS+EXT_WALL+TOWN_CODE,not used
43594,20,price_tercile~1+BLDG_SF+HD_SF+FBATH+BEDS+EXT_WALL+GAR1_SIZE+TOWN_CODE,price_tercile~1+BLDG_SF+FBATH+BEDS+EXT_WALL+TOWN_CODE,not used
43594,38,price_tercile~1+BLDG_SF+HD_SF+FBATH+BEDS+EXT_WALL+GAR1_SIZE+TOWN_CODE,price_tercile~1+BLDG_SF+FBATH+BEDS+EXT_WALL+TOWN_CODE,not used
43594,29,price_tercile~1+BLDG_SF+HD_SF+FBATH+BEDS+EXT_WALL+GAR1_SIZE+TOWN_CODE,price_tercile~1+BLDG_SF+FBATH+BEDS+EXT_WALL+TOWN_CODE,not used
43594,35,price_tercile~1+BLDG_SF+HD_SF+FBATH+BEDS+EXT_WALL+GAR1_SIZE+TOWN_CODE,price_tercile~1+BLDG_SF+FBATH+BEDS+EXT_WALL+TOWN_CODE,not used
43594,24,price_tercile~1+BLDG_SF+HD_SF+FBATH+BEDS+EXT_WALL+GAR1_SIZE+TOWN_CODE+floodplain,price_tercile~1+BLDG_SF+FBATH+BEDS+EXT_WALL+TOWN_CODE+floodplain,not used
43594,18,price_tercile~1+BLDG_SF+FBATH+BEDS+EXT_WALL+GAR1_SIZE+TOWN_CODE+floodplain,price_tercile~1+BLDG_SF+FBATH+BEDS+TOWN_CODE,not used
,"11, 12, 13, 14, 15, 19, 21, 27, 28, 30, 31, 32, 33, 34, 36, 37, 39",price_tercile~1+BLDG_SF+FBATH+BEDS+EXT_WALL+GAR1_SIZE+TOWN_CODE,price_tercile~1+BLDG_SF+FBATH+BEDS+EXT_WALL+TOWN_CODE,not used
,"26, 17, 23, 16, 22, 25, 10, 20",price_tercile~1+BLDG_SF+FBATH+BEDS+EXT_WALL+TOWN_CODE+sale_quarter+sale_quarterofyear,price_tercile~1+BLDG_SF+FBATH+BEDS+EXT_WALL+TOWN_CODE+sale_quarter+sale_quarterofyear,not used
