"Source.File","Column.Name","Column.Example","Display","Display.Name","Description","Data.Type"
"3_sf_valuation.R","PIN","12011020040000","Y","PIN","Unique PIN identifier for each property","Text"
"3_sf_valuation.R","ADDR","1217 S WASHINGTON AVE PARK RIDGE","Y","Property Address","Property street address, not the address of the taxpayer. ","Text"
"3_sf_valuation.R","most_recent_sale_date","6/30/2017","Y","Most Recent Sale Date","Most recent date of sale, where available","Date"
"3_sf_valuation.R","DOC_NO","1718106107","Y","Deed No.","Deed number for sale","Text"
"3_sf_valuation.R","most_recent_sale_price","1015000","Y","Most Recent Sale Price","Most recent sale price, where available","Number"
"3_sf_valuation.R","puremarket","1","Y","Pure Market Indicator","Indicator variable for whether the sale took place as an arms-length sale. Only arms-length sales are considered valid for sales ratio studies. 0 = no, 1 = yes.","Number"
"3_sf_valuation.R","PRI_EST_LAND","82250","Y","Price Estimate (Land)","Price estimate of the land from Board of Review final figures","Number"
"3_sf_valuation.R","PRI_EST_BLDG","634270","Y","Price Estimate (Building)","Price estimate of the building from Board of Review final figures","Number"
"3_sf_valuation.R","fitted_value_1","757492.554108518","Y","First Pass Value 1","Valuation of the PIN after the first valuation step (Leverage optimal models to predict values)","Number"
"3_sf_valuation.R","fitted_value_2","946865.692635648","Y","First Pass Value 2","Valuation of the PIN after the second valuation step (Adjust values to 10% assessment level)","Number"
"3_sf_valuation.R","land_value","22090","Y","Land Value","Value of the land of the PIN","Number"
"3_sf_valuation.R","improvement_value","924775.692635648","Y","Improvement Value","Value of any improvements (i.e. buildings) on the land at the PIN","Number"
"3_sf_valuation.R","fitted_value_3","946865.692635648","Y","First Pass Value 3","Valuation of the PIN after the third valuation step (Regressivity adjustment - currently non-functional)","Number"
"3_sf_valuation.R","fitted_value_4","946865.692635648","Y","First Pass Value 4","Valuation of the PIN after the fourth valuation step (Limit excessive ratios)","Number"
"3_sf_valuation.R","fitted_value_5","946865.692635648","Y","First Pass Value 5","Valuation of the PIN after the fifth valuation step (Land valuation)","Number"
"3_sf_valuation.R","fitted_value_6","946865.692635648","Y","First Pass Value 6","Valuation of the PIN after the sixth valuation step (Condominiums)","Number"
"3_sf_valuation.R","fitted_value_7","946865.692635648","Y","First Pass Value 7","Valuation of the PIN after the seventh valuation step (Desktop Review)","Number"
"","","","","","",""
"","","","","","",""
"","","","","","",""
"","","","","","",""
"","","","","","",""
"","","","","","",""
"","","","","","",""
"","","","","","",""
"","","","","","",""
"","","","","","",""
"","","","","","",""
"","","","","","",""
"","","","","","",""
"","","","","","",""
"","","","","","",""
"","","","","","",""
"","","","","","",""
"","","","","","",""
"","","","","","",""
"","","","","","",""
"","","","","","",""
"","","","","","",""
"","","","","","",""
"","","","","","",""
"","","","","","",""
"","","","","","",""
"","","","","","",""
"","","","","","",""
"","","","","","",""
"","","","","","",""
"","","","","","",""
"","","","","","",""
"","","","","","",""
"","","","","","",""
"","","","","","",""
"","","","","","",""
"","","","","","",""
"","","","","","",""
"","","","","","",""
"","","","","","",""
"","","","","","",""
"","","","","","",""
"","","","","","",""
"","","","","","",""
